YEARS,COUNT,PERCENTAGE
6.7,1,0.00%
7.2,2,0.01%
7.5,1,0.00%
8.5,1,0.00%
9.3,1,0.00%
9.4,1,0.00%
9.6,1,0.00%
9.8,2,0.01%
10.8,1,0.00%
11,1,0.00%
11.5,2,0.01%
11.9,1,0.00%
12.1,1,0.00%
12.6,2,0.01%
13.5,2,0.01%
13.6,4,0.01%
13.7,1,0.00%
14,1,0.00%
14.2,1,0.00%
14.3,2,0.01%
14.4,1,0.00%
14.5,1,0.00%
14.8,1,0.00%
15,3,0.01%
15.1,2,0.01%
15.2,2,0.01%
15.3,4,0.01%
15.4,7,0.02%
15.5,2,0.01%
15.6,4,0.01%
15.7,3,0.01%
15.8,6,0.02%
15.9,5,0.01%
16,5,0.01%
16.1,3,0.01%
16.2,7,0.02%
16.3,8,0.02%
16.4,7,0.02%
16.5,10,0.03%
16.6,10,0.03%
16.7,5,0.01%
16.8,6,0.02%
16.9,12,0.03%
17,14,0.04%
17.1,8,0.02%
17.2,19,0.05%
17.3,17,0.05%
17.4,15,0.04%
17.5,14,0.04%
17.6,27,0.07%
17.7,17,0.05%
17.8,20,0.05%
17.9,29,0.08%
18,31,0.08%
18.1,27,0.07%
18.2,30,0.08%
18.3,33,0.09%
18.4,28,0.07%
18.5,32,0.09%
18.6,38,0.10%
18.7,47,0.13%
18.8,28,0.07%
18.9,38,0.10%
19,37,0.10%
19.1,34,0.09%
19.2,57,0.15%
19.3,49,0.13%
19.4,60,0.16%
19.5,58,0.16%
19.6,56,0.15%
19.7,48,0.13%
19.8,44,0.12%
19.9,73,0.20%
20,55,0.15%
20.1,58,0.16%
20.2,57,0.15%
20.3,73,0.20%
20.4,79,0.21%
20.5,80,0.21%
20.6,73,0.20%
20.7,64,0.17%
20.8,77,0.21%
20.9,81,0.22%
21,66,0.18%
21.1,84,0.22%
21.2,87,0.23%
21.3,79,0.21%
21.4,85,0.23%
21.5,77,0.21%
21.6,70,0.19%
21.7,95,0.25%
21.8,96,0.26%
21.9,84,0.22%
22,89,0.24%
22.1,86,0.23%
22.2,83,0.22%
22.3,87,0.23%
22.4,104,0.28%
22.5,90,0.24%
22.6,108,0.29%
22.7,90,0.24%
22.8,105,0.28%
22.9,106,0.28%
23,107,0.29%
23.1,109,0.29%
23.2,129,0.35%
23.3,111,0.30%
23.4,111,0.30%
23.5,116,0.31%
23.6,115,0.31%
23.7,111,0.30%
23.8,119,0.32%
23.9,109,0.29%
24,116,0.31%
24.1,126,0.34%
24.2,100,0.27%
24.3,115,0.31%
24.4,137,0.37%
24.5,122,0.33%
24.6,144,0.39%
24.7,141,0.38%
24.8,127,0.34%
24.9,110,0.29%
25,111,0.30%
25.1,146,0.39%
25.2,120,0.32%
25.3,131,0.35%
25.4,136,0.36%
25.5,137,0.37%
25.6,141,0.38%
25.7,114,0.31%
25.8,123,0.33%
25.9,143,0.38%
26,136,0.36%
26.1,131,0.35%
26.2,132,0.35%
26.3,126,0.34%
26.4,112,0.30%
26.5,136,0.36%
26.6,156,0.42%
26.7,116,0.31%
26.8,126,0.34%
26.9,114,0.31%
27,141,0.38%
27.1,118,0.32%
27.2,155,0.41%
27.3,147,0.39%
27.4,139,0.37%
27.5,133,0.36%
27.6,147,0.39%
27.7,140,0.37%
27.8,148,0.40%
27.9,153,0.41%
28,152,0.41%
28.1,148,0.40%
28.2,152,0.41%
28.3,149,0.40%
28.4,132,0.35%
28.5,145,0.39%
28.6,148,0.40%
28.7,138,0.37%
28.8,153,0.41%
28.9,151,0.40%
29,165,0.44%
29.1,132,0.35%
29.2,146,0.39%
29.3,141,0.38%
29.4,138,0.37%
29.5,137,0.37%
29.6,143,0.38%
29.7,132,0.35%
29.8,139,0.37%
29.9,156,0.42%
30,165,0.44%
30.1,134,0.36%
30.2,145,0.39%
30.3,143,0.38%
30.4,136,0.36%
30.5,152,0.41%
30.6,142,0.38%
30.7,152,0.41%
30.8,135,0.36%
30.9,146,0.39%
31,148,0.40%
31.1,154,0.41%
31.2,162,0.43%
31.3,140,0.37%
31.4,164,0.44%
31.5,149,0.40%
31.6,129,0.35%
31.7,140,0.37%
31.8,162,0.43%
31.9,142,0.38%
32,151,0.40%
32.1,150,0.40%
32.2,140,0.37%
32.3,174,0.47%
32.4,152,0.41%
32.5,149,0.40%
32.6,129,0.35%
32.7,142,0.38%
32.8,144,0.39%
32.9,150,0.40%
33,140,0.37%
33.1,129,0.35%
33.2,154,0.41%
33.3,160,0.43%
33.4,138,0.37%
33.5,160,0.43%
33.6,169,0.45%
33.7,155,0.41%
33.8,152,0.41%
33.9,144,0.39%
34,160,0.43%
34.1,161,0.43%
34.2,146,0.39%
34.3,167,0.45%
34.4,161,0.43%
34.5,161,0.43%
34.6,151,0.40%
34.7,154,0.41%
34.8,137,0.37%
34.9,149,0.40%
35,152,0.41%
35.1,142,0.38%
35.2,160,0.43%
35.3,172,0.46%
35.4,188,0.50%
35.5,132,0.35%
35.6,159,0.43%
35.7,142,0.38%
35.8,147,0.39%
35.9,147,0.39%
36,161,0.43%
36.1,155,0.41%
36.2,170,0.46%
36.3,177,0.47%
36.4,137,0.37%
36.5,148,0.40%
36.6,160,0.43%
36.7,156,0.42%
36.8,167,0.45%
36.9,175,0.47%
37,174,0.47%
37.1,159,0.43%
37.2,161,0.43%
37.3,160,0.43%
37.4,159,0.43%
37.5,185,0.50%
37.6,176,0.47%
37.7,149,0.40%
37.8,171,0.46%
37.9,177,0.47%
38,166,0.44%
38.1,157,0.42%
38.2,197,0.53%
38.3,199,0.53%
38.4,178,0.48%
38.5,172,0.46%
38.6,185,0.50%
38.7,160,0.43%
38.8,168,0.45%
38.9,174,0.47%
39,198,0.53%
39.1,149,0.40%
39.2,194,0.52%
39.3,164,0.44%
39.4,193,0.52%
39.5,177,0.47%
39.6,171,0.46%
39.7,164,0.44%
39.8,186,0.50%
39.9,180,0.48%
40,185,0.50%
40.1,208,0.56%
40.2,162,0.43%
40.3,168,0.45%
40.4,176,0.47%
40.5,190,0.51%
40.6,183,0.49%
40.7,178,0.48%
40.8,186,0.50%
40.9,209,0.56%
41,189,0.51%
41.1,159,0.43%
41.2,171,0.46%
41.3,174,0.47%
41.4,172,0.46%
41.5,159,0.43%
41.6,193,0.52%
41.7,190,0.51%
41.8,188,0.50%
41.9,147,0.39%
42,172,0.46%
42.1,173,0.46%
42.2,172,0.46%
42.3,168,0.45%
42.4,153,0.41%
42.5,151,0.40%
42.6,153,0.41%
42.7,154,0.41%
42.8,145,0.39%
42.9,133,0.36%
43,111,0.30%
43.1,124,0.33%
43.2,141,0.38%
43.3,119,0.32%
43.4,116,0.31%
43.5,122,0.33%
43.6,107,0.29%
43.7,117,0.31%
43.8,101,0.27%
43.9,98,0.26%
44,113,0.30%
44.1,99,0.27%
44.2,94,0.25%
44.3,88,0.24%
44.4,78,0.21%
44.5,77,0.21%
44.6,91,0.24%
44.7,84,0.22%
44.8,94,0.25%
44.9,74,0.20%
45,83,0.22%
45.1,74,0.20%
45.2,72,0.19%
45.3,64,0.17%
45.4,54,0.14%
45.5,47,0.13%
45.6,61,0.16%
45.7,46,0.12%
45.8,45,0.12%
45.9,49,0.13%
46,41,0.11%
46.1,40,0.11%
46.2,43,0.12%
46.3,35,0.09%
46.4,29,0.08%
46.5,27,0.07%
46.6,30,0.08%
46.7,21,0.06%
46.8,27,0.07%
46.9,23,0.06%
47,26,0.07%
47.1,16,0.04%
47.2,21,0.06%
47.3,17,0.05%
47.4,16,0.04%
47.5,16,0.04%
47.6,13,0.03%
47.7,15,0.04%
47.8,16,0.04%
47.9,12,0.03%
48,15,0.04%
48.1,7,0.02%
48.2,9,0.02%
48.3,4,0.01%
48.4,4,0.01%
48.5,10,0.03%
48.6,9,0.02%
48.7,9,0.02%
48.8,9,0.02%
48.9,6,0.02%
49,6,0.02%
49.1,7,0.02%
49.2,2,0.01%
49.3,3,0.01%
49.4,8,0.02%
49.5,4,0.01%
49.6,6,0.02%
49.7,5,0.01%
49.8,7,0.02%
49.9,3,0.01%
50,2,0.01%
50.1,5,0.01%
50.2,3,0.01%
50.3,3,0.01%
50.4,2,0.01%
50.5,3,0.01%
50.6,3,0.01%
50.7,4,0.01%
50.8,4,0.01%
50.9,9,0.02%
51,6,0.02%
51.1,2,0.01%
51.2,5,0.01%
51.3,3,0.01%
51.4,4,0.01%
51.5,1,0.00%
51.7,2,0.01%
51.8,2,0.01%
51.9,1,0.00%
52,2,0.01%
52.1,3,0.01%
52.2,1,0.00%
52.3,5,0.01%
52.4,2,0.01%
52.5,2,0.01%
52.6,2,0.01%
52.7,2,0.01%
52.8,4,0.01%
52.9,4,0.01%
53,3,0.01%
53.1,3,0.01%
53.2,2,0.01%
53.4,1,0.00%
53.5,2,0.01%
53.6,2,0.01%
53.8,1,0.00%
53.9,3,0.01%
54.3,2,0.01%
54.4,1,0.00%
54.5,2,0.01%
54.7,2,0.01%
54.8,1,0.00%
55,1,0.00%
55.1,1,0.00%
55.2,1,0.00%
55.4,3,0.01%
55.5,1,0.00%
55.7,1,0.00%
55.8,3,0.01%
56,2,0.01%
56.1,1,0.00%
56.3,2,0.01%
56.6,2,0.01%
56.7,2,0.01%
56.8,1,0.00%
57.1,1,0.00%
57.2,1,0.00%
57.4,1,0.00%
57.8,1,0.00%
57.9,1,0.00%
58,1,0.00%
58.1,1,0.00%
58.2,1,0.00%
58.7,3,0.01%
58.8,2,0.01%
58.9,1,0.00%
59,1,0.00%
59.1,2,0.01%
59.2,2,0.01%
59.3,1,0.00%
59.6,2,0.01%
59.7,1,0.00%
59.8,3,0.01%
60,1,0.00%
60.1,1,0.00%
60.2,2,0.01%
60.3,1,0.00%
60.4,1,0.00%
60.5,1,0.00%
60.6,1,0.00%
60.8,1,0.00%
61.1,1,0.00%
61.2,2,0.01%
61.3,1,0.00%
61.5,1,0.00%
61.6,1,0.00%
62.4,1,0.00%
62.6,1,0.00%
62.8,2,0.01%
63.9,1,0.00%
64.2,1,0.00%
64.3,1,0.00%
65,1,0.00%
65.3,1,0.00%
65.6,1,0.00%
65.8,1,0.00%
66.6,1,0.00%
66.8,1,0.00%
